Homework 8
…
# Summary Statistics for numeric variables
data |>
  summarize(across(where(is.numeric), 
                   list("mean" = ~ mean(.x), 
                        "median" = ~ median(.x), 
                        "sd" = ~ sd(.x), 
                        "IQR" = ~ IQR(.x)),
                   .names = "{.fn}_{.col}")) |> 
  pivot_longer(cols = everything())

# A tibble: 40 × 2
   name                      value
   <chr>                     <dbl>
 1 mean_Rented Bike Count   705.  
 2 median_Rented Bike Count 504.  
 3 sd_Rented Bike Count     645.  
 4 IQR_Rented Bike Count    874.  
 5 mean_Hour                 11.5 
 6 median_Hour               11.5 
 7 sd_Hour                    6.92
 8 IQR_Hour                  11.5 
 9 mean_Temperature(°C)      12.9 
10 median_Temperature(°C)    13.7 
# ℹ 30 more rows
…
6: Create summary statistics (especially related to the bike rental count)

# Summary Stats across numeric variables is done above
# Summary Statistics across categorical variabels
data |>
  group_by(rented_bike_count, functioning) |>
  summarize(count = n())

`summarise()` has grouped output by 'rented_bike_count'. You can override using
the `.groups` argument.

# A tibble: 2,166 × 3
# Groups:   rented_bike_count [2,166]
   rented_bike_count functioning count
               <dbl> <fct>       <int>
 1                 0 No            295
 2                 2 Yes             3
 3                 3 Yes             2
 4                 4 Yes             5
 5                 5 Yes             3
 6                 6 Yes             3
 7                 7 Yes             4
 8                 8 Yes             7
 9                 9 Yes            12
10                10 Yes             7
# ℹ 2,156 more rows

# rented_bike_data across functioning = "No" has 295 values

# Summary Statistics across categorical variabels
data |>
  group_by(rented_bike_count, seasons, holiday) |>
  summarize(count = n())

`summarise()` has grouped output by 'rented_bike_count', 'seasons'. You can
override using the `.groups` argument.

# A tibble: 4,728 × 4
# Groups:   rented_bike_count, seasons [4,461]
   rented_bike_count seasons holiday    count
               <dbl> <fct>   <fct>      <int>
 1                 0 Autumn  Holiday       24
 2                 0 Autumn  No Holiday   223
 3                 0 Spring  No Holiday    48
 4                 2 Autumn  No Holiday     1
 5                 2 Spring  No Holiday     2
 6                 3 Winter  Holiday        2
 7                 4 Autumn  No Holiday     1
 8                 4 Spring  No Holiday     1
 9                 4 Winter  Holiday        3
10                 5 Autumn  No Holiday     2
# ℹ 4,718 more rows
…
Full Training Set RMSE = 4011.6345628

Obtain the final model (fit on the entire training set) coefficient table using extract_fit_parsnip() and tidy().

# Extract and view the final model's coefficient table
coef_table <- model_1_full_fit |>
  extract_fit_parsnip() |>
  tidy()

# Display the coefficient table
coef_table

# A tibble: 23 × 5
   term                 estimate std.error statistic  p.value
   <chr>                   <dbl>     <dbl>     <dbl>    <dbl>
 1 (Intercept)          453120.  163998.       2.76  6.17e- 3
 2 date                    -24.6      9.21    -2.67  8.08e- 3
 3 total_rainfall        -1844.    3494.      -0.528 5.98e- 1
 4 total_snowfall         -301.     266.      -1.13  2.59e- 1
 5 mean_temperature      -7263.    4600.      -1.58  1.16e- 1
 6 mean_humidity         -4032.    1802.      -2.24  2.62e- 2
 7 mean_wind_speed        -745.     276.      -2.70  7.46e- 3
 8 mean_visibility        -329.     350.      -0.941 3.48e- 1
 9 mean_dew_point_temp   13176.    5412.       2.43  1.56e- 2
10 mean_solar_radiation   4389.     461.       9.53  1.79e-18
# ℹ 13 more rows
